dplyr: Data Pliers in R
…
TRUE | FALSE & FALSE

[1] TRUE

1 Arrange

The arrange() function is mostly for us squishy-brained humans to better understand the data. It arranges the data.

The following code puts the columns in order according to the cty column. IMPORTANT: It does not change the original data!

mpg |>
  arrange(cty)

# A tibble: 234 × 11
   manufacturer model      displ  year   cyl trans drv     cty   hwy fl    class
   <chr>        <chr>      <dbl> <int> <int> <chr> <chr> <int> <int> <chr> <chr>
 1 dodge        dakota pi…   4.7  2008     8 auto… 4         9    12 e     pick…
 2 dodge        durango 4…   4.7  2008     8 auto… 4         9    12 e     suv  
 3 dodge        ram 1500 …   4.7  2008     8 auto… 4         9    12 e     pick…
 4 dodge        ram 1500 …   4.7  2008     8 manu… 4         9    12 e     pick…
 5 jeep         grand che…   4.7  2008     8 auto… 4         9    12 e     suv  
 6 chevrolet    c1500 sub…   5.3  2008     8 auto… r        11    15 e     suv  
 7 chevrolet    k1500 tah…   5.3  2008     8 auto… 4        11    14 e     suv  
 8 chevrolet    k1500 tah…   5.7  1999     8 auto… 4        11    15 r     suv  
 9 dodge        caravan 2…   3.3  2008     6 auto… f        11    17 e     mini…
10 dodge        dakota pi…   5.2  1999     8 manu… 4        11    17 r     pick…
# ℹ 224 more rows

The first four rows are all cty == 9, then the next 5 rows that we see are cars with 11 mpg in city driving. However, for the cars with 11 mpg city, the hwy column is not in any particular order! Let’s change that:

mpg |>
  arrange(cty, hwy)

# A tibble: 234 × 11
   manufacturer model      displ  year   cyl trans drv     cty   hwy fl    class
   <chr>        <chr>      <dbl> <int> <int> <chr> <chr> <int> <int> <chr> <chr>
 1 dodge        dakota pi…   4.7  2008     8 auto… 4         9    12 e     pick…
 2 dodge        durango 4…   4.7  2008     8 auto… 4         9    12 e     suv  
 3 dodge        ram 1500 …   4.7  2008     8 auto… 4         9    12 e     pick…
 4 dodge        ram 1500 …   4.7  2008     8 manu… 4         9    12 e     pick…
 5 jeep         grand che…   4.7  2008     8 auto… 4         9    12 e     suv  
 6 chevrolet    k1500 tah…   5.3  2008     8 auto… 4        11    14 e     suv  
 7 jeep         grand che…   6.1  2008     8 auto… 4        11    14 p     suv  
 8 chevrolet    c1500 sub…   5.3  2008     8 auto… r        11    15 e     suv  
 9 chevrolet    k1500 tah…   5.7  1999     8 auto… 4        11    15 r     suv  
10 dodge        dakota pi…   5.2  1999     8 auto… 4        11    15 r     pick…
# ℹ 224 more rows

Change the above code to then sort by displ as well. Try changing the order of cty and hwy and seeing what happens!

To get them in descending order (it assumes you want lowest to highest by default), you wrap the variable name in desc():

# Only hwy is in descending order, cty is still ascending.
mpg |>
  arrange(cty, desc(hwy))

# A tibble: 234 × 11
   manufacturer model      displ  year   cyl trans drv     cty   hwy fl    class
   <chr>        <chr>      <dbl> <int> <int> <chr> <chr> <int> <int> <chr> <chr>
 1 dodge        dakota pi…   4.7  2008     8 auto… 4         9    12 e     pick…
 2 dodge        durango 4…   4.7  2008     8 auto… 4         9    12 e     suv  
 3 dodge        ram 1500 …   4.7  2008     8 auto… 4         9    12 e     pick…
 4 dodge        ram 1500 …   4.7  2008     8 manu… 4         9    12 e     pick…
 5 jeep         grand che…   4.7  2008     8 auto… 4         9    12 e     suv  
 6 dodge        caravan 2…   3.3  2008     6 auto… f        11    17 e     mini…
 7 dodge        dakota pi…   5.2  1999     8 manu… 4        11    17 r     pick…
 8 ford         expeditio…   4.6  1999     8 auto… r        11    17 r     suv  
 9 ford         expeditio…   5.4  1999     8 auto… r        11    17 r     suv  
10 lincoln      navigator…   5.4  1999     8 auto… r        11    17 r     suv  
# ℹ 224 more rows
…
1.2 select()

The select() function selects columns. This is useful if there are only a few columns that we actually care about.

If we just wanted to look at the hwy and cty fuel efficiency, disregarding the rest of the data, we could do this:

mpg |>
  select(cty, hwy)

# A tibble: 234 × 2
     cty   hwy
   <int> <int>
 1    18    29
 2    21    29
 3    20    31
 4    21    30
 5    16    26
 6    18    26
 7    18    27
 8    18    26
 9    16    25
10    20    28
# ℹ 224 more rows
…
1.3 mutate() is the powerhouse of the code cell

A lot of the time, you’ll need to actually change the data. This is what mutate() does.

For example, the displacement of the engine (displ) is in litres, whereas the rest of the data are in imperial units. Let’s change this!

In the code below, I add a new column, rather than changing the original. I then select the relevant columns so I can see that it worked the way I expected.

mpg |>
  mutate(displ_gallons = 0.2199693 * displ) |>
  select(displ, displ_gallons)

# A tibble: 234 × 2
   displ displ_gallons
   <dbl>         <dbl>
 1   1.8         0.396
 2   1.8         0.396
 3   2           0.440
 4   2           0.440
 5   2.8         0.616
 6   2.8         0.616
 7   3.1         0.682
 8   1.8         0.396
 9   1.8         0.396
10   2           0.440
# ℹ 224 more rows
…
If we add a front wheel drive (drv == "f") car with an engine displacement of 1.5 gallons, will the smooth line look the same?

For 4 wheel drive cars, will larger engine displacements continue to have higher and higher mpg?

If we had more rear wheel drive cars, will that wonky smooth pattern still be there?

Try: In the plot, there’s one car in with drv == "f" and cyl ==6 that seems to have a much lower mpg than the rest. What’s that about? Fill in the code to see if you can gain any information.

mpg |>
  filter() |> # add filters
  mutate(fuel_efficiency = 0.45 * hwy + 0.55 * cty) |>
  arrange() # arrange appropriately

# A tibble: 234 × 12
   manufacturer model      displ  year   cyl trans drv     cty   hwy fl    class
   <chr>        <chr>      <dbl> <int> <int> <chr> <chr> <int> <int> <chr> <chr>
 1 audi         a4           1.8  1999     4 auto… f        18    29 p     comp…
 2 audi         a4           1.8  1999     4 manu… f        21    29 p     comp…
 3 audi         a4           2    2008     4 manu… f        20    31 p     comp…
 4 audi         a4           2    2008     4 auto… f        21    30 p     comp…
 5 audi         a4           2.8  1999     6 auto… f        16    26 p     comp…
 6 audi         a4           2.8  1999     6 manu… f        18    26 p     comp…
 7 audi         a4           3.1  2008     6 auto… f        18    27 p     comp…
 8 audi         a4 quattro   1.8  1999     4 manu… 4        18    26 p     comp…
 9 audi         a4 quattro   1.8  1999     4 auto… 4        16    25 p     comp…
10 audi         a4 quattro   2    2008     4 manu… 4        20    28 p     comp…
# ℹ 224 more rows
# ℹ 1 more variable: fuel_efficiency <dbl>
